src/wb_intercon-1.0/rtl/verilog/arb.vcd
$date
	Sat Aug 27 15:36:02 2016
$end
$version
	Icarus Verilog
$end
$timescale
	10ps
$end
$scope module arbiter_tb $end
$var event 1 ! end_trigger $end
$var wire 4 " select [3:0] $end
$var wire 9 # grant [8:0] $end
$var wire 1 $ active $end
$var reg 1 % clk $end
$var reg 9 & request [8:0] $end
$var reg 1 ' rst $end
$scope module uut $end
$var wire 1 % clk $end
$var wire 9 ( request [8:0] $end
$var wire 1 ' rst $end
$var wire 18 ) token_wrap [17:0] $end
$var wire 9 * order [8:0] $end
$var wire 1 + next $end
$var reg 1 $ active $end
$var reg 9 , grant [8:0] $end
$var reg 4 - select [3:0] $end
$var reg 9 . token [8:0] $end
$var integer 32 / yy [31:0] $end
$scope function ff1 $end
$var reg 4 0 ff1 [3:0] $end
$var reg 9 1 in [8:0] $end
$var integer 32 2 i [31:0] $end
$upscope $end
$scope begin ORDER_[0] $end
$upscope $end
$scope begin ORDER_[1] $end
$upscope $end
$scope begin ORDER_[2] $end
$upscope $end
$scope begin ORDER_[3] $end
$upscope $end
$scope begin ORDER_[4] $end
$upscope $end
$scope begin ORDER_[5] $end
$upscope $end
$scope begin ORDER_[6] $end
$upscope $end
$scope begin ORDER_[7] $end
$upscope $end
$scope begin ORDER_[8] $end
$upscope $end
$scope begin TOKEN_ $end
$upscope $end
$upscope $end
$scope task display_header $end
$upscope $end
$scope task display_signals $end
$upscope $end
$upscope $end
$enddefinitions $end
#0
$dumpvars
bx 2
bx 1
bx 0
bx /
bx .
bx -
bx ,
1+
b0 *
bx )
b0 (
0'
b0 &
0%
x$
bx #
bx "
1!
$end
#100
b0 #
b0 ,
b0 "
b0 -
0$
b11111111111111111111111111111111 2
b0 0
b0 1
b1001 /
1%
#200
0%
#300
b11111111111111111111111111111111 2
b1001 /
1%
#400
0%
#500
b11111111111111111111111111111111 2
b1001 /
1%
#600
0%
#700
b11111111111111111111111111111111 2
b1001 /
1%
#800
0%
#900
b11111111111111111111111111111111 2
b1001 /
1%
#1000
0%
#1100
b11111111111111111111111111111111 2
b1001 /
1%
#1200
0%
#1300
b11111111111111111111111111111111 2
b1001 /
1%
#1400
0%
#1500
b11111111111111111111111111111111 2
b1001 /
1%
#1600
0%
#1700
b11111111111111111111111111111111 2
b1001 /
1%
#1800
0%
#1900
1'
b11111111111111111111111111111111 2
b1001 /
1%
#2000
0%
#2100
b1000000001 )
b1 .
b11111111111111111111111111111111 2
1%
#2200
0%
#2300
b11111111111111111111111111111111 2
1%
#2400
0%
#2500
b11111111111111111111111111111111 2
1%
#2600
0%
#2700
b11111111111111111111111111111111 2
1%
#2800
0%
#2900
b11111111111111111111111111111111 2
1%
#3000
0%
#3100
b11111111111111111111111111111111 2
1%
#3200
0%
#3300
b11111111111111111111111111111111 2
1%
#3400
0%
#3500
b11111111111111111111111111111111 2
1%
#3600
0%
#3700
b11111111111111111111111111111111 2
1%
#3800
0%
#3900
0'
b11111111111111111111111111111111 2
1%
#4000
0%
#4100
b11111111111111111111111111111111 2
b1001 /
1%
#4200
0%
#4300
b11111111111111111111111111111111 2
b1001 /
1%
#4400
0%
#4500
b11111111111111111111111111111111 2
b1001 /
1%
#4600
0%
#4700
b11111111111111111111111111111111 2
b1001 /
1%
#4800
0%
#4900
b11111111111111111111111111111111 2
b1001 /
1%
#5000
0%
#5100
b11111111111111111111111111111111 2
b1001 /
1%
#5200
0%
#5300
b11111111111111111111111111111111 2
b1001 /
1%
#5400
0%
#5500
b11111111111111111111111111111111 2
b1001 /
1%
#5600
0%
#5700
b11111111111111111111111111111111 2
b1001 /
1%
#5800
0%
#5900
b11111111111111111111111111111111 2
b1001 /
1%
#6000
0%
#6100
b11111111111111111111111111111111 2
b1001 /
1%
#6200
0%
#6300
b11111111111111111111111111111111 2
b1001 /
1%
#6400
0%
#6500
b11111111111111111111111111111111 2
b1001 /
1%
#6600
0%
#6700
b11111111111111111111111111111111 2
b1001 /
1%
#6800
0%
#6900
b11111111111111111111111111111111 2
b1001 /
1%
#7000
0%
#7100
b11111111111111111111111111111111 2
b1001 /
1%
#7200
0%
#7300
b11111111111111111111111111111111 2
b1001 /
1%
#7400
0%
#7500
b11111111111111111111111111111111 2
b1001 /
1%
#7600
0%
#7700
b11111111111111111111111111111111 2
b1001 /
1%
#7800
0%
#7900
0+
b11 *
b100000001 &
b100000001 (
b11111111111111111111111111111111 2
b1001 /
1%
#8000
0%
#8100
b1 #
b1 ,
1$
b11111111111111111111111111111111 2
b1 1
1%
#8200
0%
#8300
b11111111111111111111111111111111 2
1%
#8400
0%
#8500
b11111111111111111111111111111111 2
1%
#8600
0%
#8700
b11111111111111111111111111111111 2
1%
#8800
0%
#8900
b11111111111111111111111111111111 2
1%
#9000
0%
#9100
b11111111111111111111111111111111 2
1%
#9200
0%
#9300
b11111111111111111111111111111111 2
1%
#9400
0%
#9500
b11111111111111111111111111111111 2
1%
#9600
0%
#9700
b11111111111111111111111111111111 2
1%
#9800
0%
#9900
b11111111111111111111111111111111 2
1%
#10000
0%
#10100
b11111111111111111111111111111111 2
1%
#10200
0%
#10300
b11111111111111111111111111111111 2
1%
#10400
0%
#10500
b11111111111111111111111111111111 2
1%
#10600
0%
#10700
b11111111111111111111111111111111 2
1%
#10800
0%
#10900
b0 #
b0 ,
0$
1+
b100000000 *
b11111111111111111111111111111111 2
b0 1
b10 &
b10 (
1%
#11000
0%
#11100
b1 *
0+
b10000000010 )
b10 .
b1001 /
b11111111111111111111111111111111 2
1%
#11200
0%
#11300
b10 #
b10 ,
b1 "
b1 -
1$
b1 0
b11111111111111111111111111111111 2
b10 1
1%
#11400
0%
#11500
b11111111111111111111111111111111 2
b1 0
1%
#11600
0%
#11700
b11111111111111111111111111111111 2
b1 0
1%
#11800
0%
#11900
b11111111111111111111111111111111 2
b1 0
1%
#12000
0%
#12100
b11111111111111111111111111111111 2
b1 0
1%
#12200
0%
#12300
b11111111111111111111111111111111 2
b1 0
1%
#12400
0%
#12500
b11111111111111111111111111111111 2
b1 0
1%
#12600
0%
#12700
b11111111111111111111111111111111 2
b1 0
1%
#12800
0%
#12900
b11111111111111111111111111111111 2
b1 0
1%
#13000
0%
#13100
b11111111111111111111111111111111 2
b1 0
1%
#13200
0%
#13300
b11111111111111111111111111111111 2
b1 0
1%
#13400
0%
#13500
b11111111111111111111111111111111 2
b1 0
1%
#13600
0%
#13700
b11111111111111111111111111111111 2
b1 0
1%
#13800
0%
#13900
1+
b1010 *
b10000001 &
b10000001 (
b11111111111111111111111111111111 2
b1 0
1%
#14000
0%
#14100
b10000001 *
0+
b10000000010000000 )
b10000000 .
b0 #
b0 ,
b0 "
b0 -
0$
b11111111111111111111111111111111 2
b0 0
b0 1
b1001 /
1%
#14200
0%
#14300
1$
b111 "
b111 -
b10000000 #
b10000000 ,
b111 0
b11111111111111111111111111111111 2
b10000000 1
1%
#14400
0%
#14500
b11111111111111111111111111111111 2
b111 0
1%
#14600
0%
#14700
b11111111111111111111111111111111 2
b111 0
1%
#14800
0%
#14900
b11111111111111111111111111111111 2
b111 0
1%
#15000
0%
#15100
b11111111111111111111111111111111 2
b111 0
1%
#15200
0%
#15300
b11111111111111111111111111111111 2
b111 0
1%
#15400
0%
#15500
b11111111111111111111111111111111 2
b111 0
1%
#15600
0%
#15700
b11111111111111111111111111111111 2
b111 0
1%
#15800
0%
#15900
b11111111111111111111111111111111 2
b111 0
1%
#16000
0%
#16100
b11111111111111111111111111111111 2
b111 0
1%
#16200
0%
#16300
b11111111111111111111111111111111 2
b111 0
1%
#16400
0%
#16500
b11111111111111111111111111111111 2
b111 0
1%
#16600
0%
#16700
b11111111111111111111111111111111 2
b111 0
1%
#16800
0%
#16900
b0 #
b0 ,
b0 "
b0 -
0$
1+
b10000000 *
b11111111111111111111111111111111 2
b0 0
b0 1
b1 &
b1 (
1%
#17000
0%
#17100
b1000000001 )
b1 .
0+
b101 *
b10000001 &
b10000001 (
b11111111111111111111111111111111 2
b1001 /
1%
#17200
0%
#17300
b1 #
b1 ,
1$
b11111111111111111111111111111111 2
b1 1
1%
#17400
0%
#17500
b11111111111111111111111111111111 2
1%
#17600
0%
#17700
b11111111111111111111111111111111 2
1%
#17800
0%
#17900
b11111111111111111111111111111111 2
1%
#18000
0%
#18100
b11111111111111111111111111111111 2
1%
#18200
0%
#18300
b11111111111111111111111111111111 2
1%
#18400
0%
#18500
b11111111111111111111111111111111 2
1%
#18600
0%
#18700
b11111111111111111111111111111111 2
1%
#18800
0%
#18900
b11111111111111111111111111111111 2
1%
#19000
0%
#19100
b11111111111111111111111111111111 2
1%
#19200
0%
#19300
b11111111111111111111111111111111 2
1%
#19400
0%
#19500
b11111111111111111111111111111111 2
1%
#19600
0%
#19700
b11111111111111111111111111111111 2
1%
#19800
0%
#19900
b11111111111111111111111111111111 2
1%
#20000
0%
#20100
b0 #
b0 ,
0$
1+
b100 *
b11111111111111111111111111111111 2
b0 1
b10000000 &
b10000000 (
1%
#20200
0%
#20300
b1 *
0+
b10000000010000000 )
b10000000 .
b1001 /
b11111111111111111111111111111111 2
1%
#20400
0%
#20500
b10000000 #
b10000000 ,
b111 "
b111 -
1$
b111 0
b11111111111111111111111111111111 2
b10000000 1
1%
#20600
0%
#20700
b11111111111111111111111111111111 2
b111 0
1%
#20800
0%
#20900
b11111111111111111111111111111111 2
b111 0
1%
#21000
0%
#21100
b100001 *
b10000100 &
b10000100 (
b11111111111111111111111111111111 2
b111 0
1%
#21200
0%
#21300
b11111111111111111111111111111111 2
b111 0
1%
#21400
0%
#21500
b11111111111111111111111111111111 2
b111 0
1%
#21600
0%
#21700
b11111111111111111111111111111111 2
b111 0
1%
#21800
0%
#21900
b11111111111111111111111111111111 2
b111 0
1%
#22000
0%
#22100
b11111111111111111111111111111111 2
b111 0
1%
#22200
0%
#22300
b11111111111111111111111111111111 2
b111 0
1%
#22400
0%
#22500
b11111111111111111111111111111111 2
b111 0
1%
#22600
0%
#22700
b11111111111111111111111111111111 2
b111 0
1%
#22800
0%
#22900
b11111111111111111111111111111111 2
b111 0
1%
#23000
0%
#23100
1+
b100000 *
b100 &
b100 (
b11111111111111111111111111111111 2
b111 0
1%
#23200
0%
#23300
b1 *
0+
b100000000100 )
b100 .
b0 #
b0 ,
b0 "
b0 -
0$
b11111111111111111111111111111111 2
b0 0
b0 1
b1001 /
1%
#23400
0%
#23500
1$
b10 "
b10 -
b100 #
b100 ,
b10 0
b11111111111111111111111111111111 2
b100 1
1%
#23600
0%
#23700
b11111111111111111111111111111111 2
b10 0
1%
#23800
0%
#23900
b11111111111111111111111111111111 2
b10 0
1%
#24000
0%
#24100
b11111111111111111111111111111111 2
b10 0
1%
#24200
0%
#24300
b11111111111111111111111111111111 2
b10 0
1%
#24400
0%
#24500
b11111111111111111111111111111111 2
b10 0
1%
#24600
0%
#24700
b11111111111111111111111111111111 2
b10 0
1%
#24800
0%
#24900
b11111111111111111111111111111111 2
b10 0
1%
#25000
0%
#25100
b11111111111111111111111111111111 2
b10 0
1%
#25200
0%
#25300
b11111111111111111111111111111111 2
b10 0
1%
#25400
0%
#25500
b11111111111111111111111111111111 2
b10 0
1%
#25600
0%
#25700
b11111111111111111111111111111111 2
b10 0
1%
#25800
0%
#25900
b11111111111111111111111111111111 2
b10 0
1%
#26000
0%
#26100
b0 #
b0 ,
b0 "
b0 -
0$
1+
b1000000 *
b11111111111111111111111111111111 2
b0 0
b0 1
b100000 &
b100000 (
1%
#26200
0%
#26300
b1 *
0+
b100000000100000 )
b100000 .
b11111111111111111111111111111111 2
b1001 /
1%
#26400
0%
#26500
b100000 #
b100000 ,
b101 "
b101 -
1$
b101 0
b11111111111111111111111111111111 2
b100000 1
1%
#26600
0%
#26700
b11111111111111111111111111111111 2
b101 0
1%
#26800
0%
#26900
b11111111111111111111111111111111 2
b101 0
1%
#27000
0%
#27100
b11111111111111111111111111111111 2
b101 0
1%
#27200
0%
#27300
b11111111111111111111111111111111 2
b101 0
1%
#27400
0%
#27500
b11111111111111111111111111111111 2
b101 0
1%
#27600
0%
#27700
b11111111111111111111111111111111 2
b101 0
1%
#27800
0%
#27900
b11111111111111111111111111111111 2
b101 0
1%
#28000
0%
#28100
b11111111111111111111111111111111 2
b101 0
1%
#28200
0%
#28300
b11111111111111111111111111111111 2
b101 0
1%
#28400
0%
#28500
b11111111111111111111111111111111 2
b101 0
1%
#28600
0%
#28700
b11111111111111111111111111111111 2
b101 0
1%
#28800
0%
#28900
b11111111111111111111111111111111 2
b101 0
1%
#29000
0%
#29100
1+
b0 *
b0 &
b0 (
b11111111111111111111111111111111 2
b101 0
1%
#29200
0%
#29300
0+
b1 *
b11111111111111111111111111111111 2
b101 0
b100000 &
b100000 (
b1001 /
1%
#29400
0%
#29500
b11111111111111111111111111111111 2
b101 0
1%
#29600
0%
#29700
b11111111111111111111111111111111 2
b101 0
1%
#29800
0%
#29900
b11111111111111111111111111111111 2
b101 0
1%
#30000
0%
#30100
b11111111111111111111111111111111 2
b101 0
1%
#30200
0%
#30300
b11111111111111111111111111111111 2
b101 0
1%
#30400
0%
#30500
b11111111111111111111111111111111 2
b101 0
1%
#30600
0%
#30700
b11111111111111111111111111111111 2
b101 0
1%
#30800
0%
#30900
b11111111111111111111111111111111 2
b101 0
1%
#31000
0%
#31100
b11111111111111111111111111111111 2
b101 0
1%
#31200
0%
#31300
b111111111 *
b11111111111111111111111111111111 2
b101 0
b111111111 &
b111111111 (
1%
#31400
0%
#31500
b11111111111111111111111111111111 2
b101 0
1%
#31600
0%
#31700
b11111111111111111111111111111111 2
b101 0
1%
#31800
0%
#31900
b11111111111111111111111111111111 2
b101 0
1%
#32000
0%
#32100
b11111111111111111111111111111111 2
b101 0
1%
#32200
0%
#32300
b11111111111111111111111111111111 2
b101 0
1%
#32400
0%
#32500
b11111111111111111111111111111111 2
b101 0
1%
#32600
0%
#32700
b11111111111111111111111111111111 2
b101 0
1%
#32800
0%
#32900
b11111111111111111111111111111111 2
b101 0
1%
#33000
0%
#33100
b11111111111111111111111111111111 2
b101 0
1%
#33200
0%
#33300
b0 #
b0 ,
b0 "
b0 -
0$
1+
b111111110 *
b11111111111111111111111111111111 2
b0 0
b0 1
b111011111 &
b111011111 (
1%
#33400
0%
#33500
b1000000001000000 )
b1000000 .
0+
b111111111 *
b111111111 &
b111111111 (
b11111111111111111111111111111111 2
b1001 /
1%
#33600
0%
#33700
b1000000 #
b1000000 ,
b110 "
b110 -
1$
b110 0
b11111111111111111111111111111111 2
b1000000 1
1%
#33800
0%
#33900
b11111111111111111111111111111111 2
b110 0
1%
#34000
0%
#34100
b11111111111111111111111111111111 2
b110 0
1%
#34200
0%
#34300
b11111111111111111111111111111111 2
b110 0
1%
#34400
0%
#34500
b11111111111111111111111111111111 2
b110 0
1%
#34600
0%
#34700
b11111111111111111111111111111111 2
b110 0
1%
#34800
0%
#34900
b11111111111111111111111111111111 2
b110 0
1%
#35000
0%
#35100
b11111111111111111111111111111111 2
b110 0
1%
#35200
0%
#35300
b11111111111111111111111111111111 2
b110 0
1%
#35400
0%
#35500
1+
b111111110 *
b110111111 &
b110111111 (
b11111111111111111111111111111111 2
b110 0
1%
#35600
0%
#35700
b10000000010000000 )
b10000000 .
0+
b111111111 *
b11111111111111111111111111111111 2
b110 0
b111111111 &
b111111111 (
b1001 /
1%
#35800
0%
#35900
b111 "
b111 -
b10000000 #
b10000000 ,
b11111111111111111111111111111111 2
b111 0
b10000000 1
1%
#36000
0%
#36100
b11111111111111111111111111111111 2
b111 0
1%
#36200
0%
#36300
b11111111111111111111111111111111 2
b111 0
1%
#36400
0%
#36500
b11111111111111111111111111111111 2
b111 0
1%
#36600
0%
#36700
b11111111111111111111111111111111 2
b111 0
1%
#36800
0%
#36900
b11111111111111111111111111111111 2
b111 0
1%
#37000
0%
#37100
b11111111111111111111111111111111 2
b111 0
1%
#37200
0%
#37300
b11111111111111111111111111111111 2
b111 0
1%
#37400
0%
#37500
b11111111111111111111111111111111 2
b111 0
1%
#37600
0%
#37700
b0 #
b0 ,
b0 "
b0 -
0$
1+
b111111110 *
b11111111111111111111111111111111 2
b0 0
b0 1
b101111111 &
b101111111 (
1%
#37800
0%
#37900
b100000000100000000 )
b100000000 .
0+
b111111111 *
b111111111 &
b111111111 (
b11111111111111111111111111111111 2
b1001 /
1%
#38000
0%
#38100
b100000000 #
b100000000 ,
b1000 "
b1000 -
1$
b1000 0
b11111111111111111111111111111111 2
b100000000 1
1%
#38200
0%
#38300
b11111111111111111111111111111111 2
b1000 0
1%
#38400
0%
#38500
b11111111111111111111111111111111 2
b1000 0
1%
#38600
0%
#38700
b11111111111111111111111111111111 2
b1000 0
1%
#38800
0%
#38900
b11111111111111111111111111111111 2
b1000 0
1%
#39000
0%
#39100
b11111111111111111111111111111111 2
b1000 0
1%
#39200
0%
#39300
b11111111111111111111111111111111 2
b1000 0
1%
#39400
0%
#39500
b11111111111111111111111111111111 2
b1000 0
1%
#39600
0%
#39700
b11111111111111111111111111111111 2
b1000 0
1%
#39800
0%
#39900
1+
b111111110 *
b11111111 &
b11111111 (
b11111111111111111111111111111111 2
b1000 0
1%
#40000
0%
#40100
b1000000001 )
b1 .
0+
b111111111 *
b11111111111111111111111111111111 2
b1000 0
b111111111 &
b111111111 (
b1001 /
1%
#40200
0%
#40300
b0 "
b0 -
b1 #
b1 ,
b11111111111111111111111111111111 2
b0 0
b1 1
1%
#40400
0%
#40500
b11111111111111111111111111111111 2
1%
#40600
0%
#40700
b11111111111111111111111111111111 2
1%
#40800
0%
#40900
b11111111111111111111111111111111 2
1%
#41000
0%
#41100
b11111111111111111111111111111111 2
1%
#41200
0%
#41300
b11111111111111111111111111111111 2
1%
#41400
0%
#41500
b11111111111111111111111111111111 2
1%
#41600
0%
#41700
b11111111111111111111111111111111 2
1%
#41800
0%
#41900
b11111111111111111111111111111111 2
1%
#42000
0%
#42100
b11111111111111111111111111111111 2
1%
#42200
0%
#42300
1!
b11111111111111111111111111111111 2
1%
