src/wb_intercon-1.0/rtl/verilog/result.vcd
$date
	Sat Aug 27 17:48:14 2016
$end
$version
	Icarus Verilog
$end
$timescale
	10ps
$end
$scope module wb_snoop_arbiter_tb $end
$var wire 1 ! s_we_o $end
$var wire 1 " s_stb_o $end
$var wire 4 # s_sel_o [3:0] $end
$var wire 32 $ s_dat_o [31:0] $end
$var wire 1 % s_cyc_o $end
$var wire 3 & s_cti_o [2:0] $end
$var wire 2 ' s_bte_o [1:0] $end
$var wire 32 ( s_adr_o [31:0] $end
$var wire 2 ) op_type_o [1:0] $end
$var wire 128 * op_adr_o [127:0] $end
$var wire 4 + m_rty_o [3:0] $end
$var wire 4 , m_err_o [3:0] $end
$var wire 128 - m_dat_o [127:0] $end
$var wire 4 . m_ack_o [3:0] $end
$var reg 1 / clk $end
$var reg 128 0 m_adr_i [127:0] $end
$var reg 8 1 m_bte_i [7:0] $end
$var reg 12 2 m_cti_i [11:0] $end
$var reg 4 3 m_cyc_i [3:0] $end
$var reg 128 4 m_dat_i [127:0] $end
$var reg 16 5 m_sel_i [15:0] $end
$var reg 4 6 m_stb_i [3:0] $end
$var reg 4 7 m_we_i [3:0] $end
$var reg 8 8 op_response_i [7:0] $end
$var reg 128 9 oped_dat_i [127:0] $end
$var reg 1 : rst $end
$var reg 1 ; s_ack_i $end
$var reg 32 < s_dat_i [31:0] $end
$var reg 1 = s_err_i $end
$var reg 1 > s_rty_i $end
$scope module uut $end
$var wire 8 ? snoop_response_i [7:0] $end
$var wire 128 @ snooped_dat_i [127:0] $end
$var wire 1 / wb_clk_i $end
$var wire 1 : wb_rst_i $end
$var wire 128 A wbm_adr_i [127:0] $end
$var wire 8 B wbm_bte_i [7:0] $end
$var wire 12 C wbm_cti_i [11:0] $end
$var wire 4 D wbm_cyc_i [3:0] $end
$var wire 128 E wbm_dat_i [127:0] $end
$var wire 16 F wbm_sel_i [15:0] $end
$var wire 4 G wbm_stb_i [3:0] $end
$var wire 4 H wbm_we_i [3:0] $end
$var wire 1 ; wbs_ack_i $end
$var wire 1 % wbs_cyc_o $end
$var wire 32 I wbs_dat_i [31:0] $end
$var wire 1 = wbs_err_i $end
$var wire 1 > wbs_rty_i $end
$var wire 1 ! wbs_we_o $end
$var wire 1 " wbs_stb_o $end
$var wire 4 J wbs_sel_o [3:0] $end
$var wire 32 K wbs_dat_o [31:0] $end
$var wire 3 L wbs_cti_o [2:0] $end
$var wire 2 M wbs_bte_o [1:0] $end
$var wire 32 N wbs_adr_o [31:0] $end
$var wire 4 O wbm_rty_o [3:0] $end
$var wire 4 P wbm_err_o [3:0] $end
$var wire 128 Q wbm_dat_o [127:0] $end
$var wire 4 R wbm_ack_o [3:0] $end
$var wire 2 S master_sel [1:0] $end
$var wire 4 T grant [3:0] $end
$var wire 1 U active $end
$var reg 4 V arbiter_cyc [3:0] $end
$var reg 1 W mem_access_active $end
$var reg 2 X poll_response_flag [1:0] $end
$var reg 2 Y saved_master_sel [1:0] $end
$var reg 4 Z saved_request [3:0] $end
$var reg 128 [ snoop_adr_o [127:0] $end
$var reg 32 \ snoop_adr_reg [31:0] $end
$var reg 2 ] snoop_type_o [1:0] $end
$var reg 32 ^ snooped_dat [31:0] $end
$var reg 4 _ state [3:0] $end
$scope function clog2 $end
$var integer 32 ` clog2 [31:0] $end
$var integer 32 a in [31:0] $end
$upscope $end
$scope function ff1 $end
$var integer 32 b ff1 [31:0] $end
$var integer 32 c i [31:0] $end
$var integer 32 d in [31:0] $end
$var integer 32 e width [31:0] $end
$upscope $end
$scope function fl1 $end
$var integer 32 f fl1 [31:0] $end
$var integer 32 g i [31:0] $end
$var integer 32 h in [31:0] $end
$var integer 32 i width [31:0] $end
$upscope $end
$scope function reverse_bits $end
$var integer 32 j i [31:0] $end
$var integer 32 k in [31:0] $end
$var integer 32 l reverse_bits [31:0] $end
$var integer 32 m width [31:0] $end
$upscope $end
$scope function reverse_bytes $end
$var integer 32 n i [31:0] $end
$var integer 32 o in [31:0] $end
$var integer 32 p reverse_bytes [31:0] $end
$var integer 32 q width [31:0] $end
$upscope $end
$scope begin genblk1[0] $end
$upscope $end
$scope begin genblk1[1] $end
$upscope $end
$scope begin genblk1[2] $end
$upscope $end
$scope begin genblk1[3] $end
$upscope $end
$scope module arbiter0 $end
$var wire 1 / clk $end
$var wire 4 r request [3:0] $end
$var wire 1 : rst $end
$var wire 8 s token_wrap [7:0] $end
$var wire 4 t order [3:0] $end
$var wire 1 u next $end
$var reg 1 U active $end
$var reg 4 v grant [3:0] $end
$var reg 2 w select [1:0] $end
$var reg 4 x token [3:0] $end
$var integer 32 y yy [31:0] $end
$scope function ff1 $end
$var reg 2 z ff1 [1:0] $end
$var reg 4 { in [3:0] $end
$var integer 32 | i [31:0] $end
$upscope $end
$scope begin ORDER_[0] $end
$upscope $end
$scope begin ORDER_[1] $end
$upscope $end
$scope begin ORDER_[2] $end
$upscope $end
$scope begin ORDER_[3] $end
$upscope $end
$scope begin TOKEN_ $end
$upscope $end
$upscope $end
$scope begin master_sel_sensitivity_block $end
$var integer 32 } j [31:0] $end
$upscope $end
$scope begin poll_response_sensitivity_block $end
$var integer 32 ~ i [31:0] $end
$upscope $end
$upscope $end
$upscope $end
$enddefinitions $end
#0
$dumpvars
bx ~
bx }
bx |
bx {
bx z
bx y
bx x
bx w
bx v
1u
b0 t
bx s
b0 r
bx q
bx p
bx o
bx n
bx m
bx l
bx k
bx j
bx i
bx h
bx g
bx f
bx e
bx d
bx c
bx b
bx a
bx `
b1 _
bx ^
b0 ]
bx \
bx [
bx Z
bx Y
b10 X
0W
b0 V
xU
bx T
bx S
bx R
bx Q
bx P
bx O
bx N
bx M
bx L
bx K
bx J
bx I
b0 H
bx G
bx F
bx E
b0 D
bx C
bx B
bx A
bx @
bx ?
x>
x=
bx <
x;
1:
bx 9
bx 8
b0 7
bx 6
bx 5
bx 4
b0 3
bx 2
bx 1
bx 0
0/
bx .
bx -
bx ,
bx +
bx *
b0 )
bx (
bx '
bx &
x%
bx $
bx #
x"
x!
$end
#100
b0 .
b0 R
0%
b0 T
b0 v
b0 +
b0 O
b0 ,
b0 P
0!
b0 S
b0 w
0U
b10001 s
b1 x
b11111111111111111111111111111111 |
b0 z
b0 {
1/
#200
0/
#300
b11111111111111111111111111111111 |
1/
#400
0/
#500
b11111111111111111111111111111111 |
1/
#600
0/
#700
b11111111111111111111111111111111 |
1/
#800
0/
#900
b11111111111111111111111111111111 |
1/
#1000
0u
b1111 t
b1111 V
b1111 r
0/
b1111 3
b1111 D
0:
#1100
b0x .
b0x R
1u
b0 t
b0x +
b0x O
b0x ,
b0x P
b100 }
b1 )
b1 ]
b100 _
b1111 Z
b0 V
b0 r
b0 Y
1%
1U
b1 T
b1 v
b11111111111111111111111111111111 |
b1 {
1/
#1200
0/
#1300
b0 .
b0 R
b0 +
b0 O
b0 ,
b0 P
0%
b0 T
b0 v
0U
b11111111111111111111111111111111 |
b0 {
b100 y
1/
#1400
0/
#1500
b11111111111111111111111111111111 |
b100 y
1/
#1600
0/
#1700
b11111111111111111111111111111111 |
b100 y
1/
#1800
0/
#1900
b11111111111111111111111111111111 |
b100 y
1/
#2000
0/
#2100
b11111111111111111111111111111111 |
b100 y
1/
#2200
0/
#2300
b11111111111111111111111111111111 |
b100 y
1/
#2400
0/
#2500
b11111111111111111111111111111111 |
b100 y
b1000 _
b0 X
1/
b0 8
b0 ?
#2600
0/
#2700
b0x .
b0x R
b0x +
b0x O
b0x ,
b0x P
1%
1U
b1 T
b1 v
0u
b1111 t
b11111111111111111111111111111111 |
b1 {
b100 y
b1111 V
b1111 r
1W
1/
#2800
0/
#2900
b11111111111111111111111111111111 |
1/
#3000
0/
#3100
b11111111111111111111111111111111 |
1/
#3200
0/
#3300
b11111111111111111111111111111111 |
1/
#3400
0/
#3500
b11111111111111111111111111111111 |
1/
#3600
0/
#3700
b11111111111111111111111111111111 |
1/
#3800
0/
#3900
b11111111111111111111111111111111 |
1/
#4000
0/
#4100
b11111111111111111111111111111111 |
1/
#4200
0/
#4300
b11111111111111111111111111111111 |
1/
#4400
0/
#4500
b1 .
b1 R
b11111111111111111111111111111111 |
b1000000000000000000000000000000010000000000000000000000000000000100000000000000000000000000000001 -
b1000000000000000000000000000000010000000000000000000000000000000100000000000000000000000000000001 Q
1/
b1 <
b1 I
1;
#4600
0/
#4700
b11111111111111111111111111111111 |
1/
#4800
0/
#4900
b11111111111111111111111111111111 |
1/
#5000
0/
#5100
b11111111111111111111111111111111 |
1/
#5200
0/
#5300
b11111111111111111111111111111111 |
1/
#5400
0/
#5500
b0 .
b0 R
b1 _
b11111111111111111111111111111111 |
b0 -
b0 Q
0%
1/
0;
b0 <
b0 I
b1110 3
b1110 D
#5600
0/
#5700
b0 +
b0 O
b0 ,
b0 P
b0 T
b0 v
0U
1u
b1110 t
b11111111111111111111111111111111 |
b0 {
b10 X
b0 )
b0 ]
b1110 V
b1110 r
0W
1/
#5800
0/
#5900
b1101 t
0u
b100010 s
b10 x
b100 y
b11111111111111111111111111111111 |
1/
#6000
0/
#6100
1u
b0 t
b0x0 +
b0x0 O
b0x0 ,
b0x0 P
b100 }
b1 )
b1 ]
b100 _
b1110 Z
b0 V
b0 r
b1 Y
1%
b10 T
b10 v
b1 S
b1 w
1U
b1 z
b11111111111111111111111111111111 |
b10 {
1/
#6200
0/
#6300
0%
0U
b0 +
b0 O
b0 ,
b0 P
b0 S
b0 w
b0 T
b0 v
b100 y
b11111111111111111111111111111111 |
b0 z
b0 {
1/
#6400
0/
#6500
b0x0 +
b0x0 O
b0x0 ,
b0x0 P
b100 }
1%
b10 T
b10 v
b1 S
b1 w
1U
b10001 s
b1 x
1u
b0 t
b1 z
b11111111111111111111111111111111 |
b10 {
b1 )
b1 ]
b0 V
b0 r
b100 _
1/
1:
#6600
0/
#6700
0%
0U
b0 +
b0 O
b0 ,
b0 P
b0 S
b0 w
b0 T
b0 v
b1110 t
b11111111111111111111111111111111 |
b0 z
b0 {
b0 )
b0 ]
b1110 V
b1110 r
b1 _
1/
#6800
0/
#6900
b11111111111111111111111111111111 |
1/
#7000
0/
#7100
b11111111111111111111111111111111 |
1/
#7200
0/
#7300
b11111111111111111111111111111111 |
1/
#7400
0/
#7500
b11111111111111111111111111111111 |
1/
#7600
0/
#7700
b11111111111111111111111111111111 |
1/
#7800
0/
#7900
b11111111111111111111111111111111 |
1/
#8000
0/
#8100
b11111111111111111111111111111111 |
1/
#8200
0/
#8300
b11111111111111111111111111111111 |
1/
#8400
0/
#8500
b11111111111111111111111111111111 |
1/
#8600
0/
#8700
b11111111111111111111111111111111 |
1/
#8800
0/
#8900
b11111111111111111111111111111111 |
1/
#9000
0/
#9100
b11111111111111111111111111111111 |
1/
#9200
0/
#9300
b11111111111111111111111111111111 |
1/
#9400
0/
#9500
b11111111111111111111111111111111 |
1/
#9600
0/
#9700
b11111111111111111111111111111111 |
1/
#9800
0/
#9900
b11111111111111111111111111111111 |
1/
#10000
0/
#10100
b11111111111111111111111111111111 |
1/
#10200
0/
#10300
b11111111111111111111111111111111 |
1/
#10400
0/
#10500
b1101 t
0u
b100010 s
b10 x
b11111111111111111111111111111111 |
b100 y
1/
0:
#10600
0/
#10700
1u
b0 t
b0x0 +
b0x0 O
b0x0 ,
b0x0 P
1%
b100 }
b1 )
b1 ]
b100 _
b0 V
b0 r
1U
b1 S
b1 w
b10 T
b10 v
b1 z
b11111111111111111111111111111111 |
b10 {
1/
#10800
0/
#10900
0%
b0 T
b0 v
b0 +
b0 O
b0 ,
b0 P
b0 S
b0 w
0U
b100 y
b11111111111111111111111111111111 |
b0 z
b0 {
1/
#11000
0/
#11100
b11111111111111111111111111111111 |
b100 y
1/
#11200
0/
#11300
b11111111111111111111111111111111 |
b100 y
1/
#11400
0/
#11500
b1000000000000000000000000000000010000000000000000000000000000000100000000000000000000000000000001000000 -
b1000000000000000000000000000000010000000000000000000000000000000100000000000000000000000000000001000000 Q
b10 .
b10 R
b11111111111111111111111111111111 |
b100 y
b1000000 ^
b11 X
b100 ~
1/
b1000000 9
b1000000 @
b11 8
b11 ?
#11600
0/
#11700
b11111111111111111111111111111111 |
b100 y
1/
#11800
0/
#11900
b11111111111111111111111111111111 |
b100 y
1/
#12000
0/
#12100
b11111111111111111111111111111111 |
b100 y
1/
#12200
0/
#12300
b11111111111111111111111111111111 |
b100 y
1/
#12400
0/
#12500
b1 _
b11111111111111111111111111111111 |
b100 y
1/
b1100 3
b1100 D
#12600
0/
#12700
b0 -
b0 Q
b0 .
b0 R
b1100 t
b11111111111111111111111111111111 |
b100 y
b10 X
b0 )
b0 ]
b1100 V
b1100 r
1/
#12800
0/
#12900
b1001 t
0u
b1000100 s
b100 x
b11111111111111111111111111111111 |
b100 y
1/
#13000
0/
#13100
1u
b0 t
b0x00 +
b0x00 O
b0x00 ,
b0x00 P
1%
b100 }
b1 )
b1 ]
b100 _
b1100 Z
b0 V
b0 r
b10 Y
1U
b10 S
b10 w
b100 T
b100 v
b10 z
b11111111111111111111111111111111 |
b100 {
1/
#13200
0/
#13300
0%
b0 T
b0 v
b0 +
b0 O
b0 ,
b0 P
b0 S
b0 w
0U
b100 y
b11111111111111111111111111111111 |
b0 z
b0 {
1/
#13400
0/
#13500
b0x00 +
b0x00 O
b0x00 ,
b0x00 P
1%
b100 }
1U
b10 S
b10 w
b100 T
b100 v
b10001 s
b1 x
1u
b0 t
b10 z
b11111111111111111111111111111111 |
b100 {
b1 )
b1 ]
b0 V
b0 r
b100 _
1/
1:
#13600
0/
#13700
0%
b0 T
b0 v
b0 +
b0 O
b0 ,
b0 P
b0 S
b0 w
0U
b110 t
b11111111111111111111111111111111 |
b0 z
b0 {
b0 )
b0 ]
b1100 V
b1100 r
b1 _
1/
#13800
0/
#13900
b11111111111111111111111111111111 |
1/
#14000
0/
#14100
b11111111111111111111111111111111 |
1/
#14200
0/
#14300
b11111111111111111111111111111111 |
1/
#14400
0/
#14500
b11111111111111111111111111111111 |
1/
#14600
0/
#14700
b11111111111111111111111111111111 |
1/
#14800
0/
#14900
b11111111111111111111111111111111 |
1/
#15000
0/
#15100
b11111111111111111111111111111111 |
1/
#15200
0/
#15300
b11111111111111111111111111111111 |
1/
#15400
0/
#15500
b11111111111111111111111111111111 |
1/
#15600
0/
#15700
b11111111111111111111111111111111 |
1/
#15800
0/
#15900
b11111111111111111111111111111111 |
1/
#16000
0/
#16100
b11111111111111111111111111111111 |
1/
#16200
0/
#16300
b11111111111111111111111111111111 |
1/
#16400
0/
#16500
b11111111111111111111111111111111 |
1/
#16600
0/
#16700
b11111111111111111111111111111111 |
1/
#16800
0/
#16900
b11111111111111111111111111111111 |
1/
#17000
0/
#17100
b11111111111111111111111111111111 |
1/
#17200
0/
#17300
b11111111111111111111111111111111 |
1/
#17400
0/
#17500
b1001 t
0u
b1000100 s
b100 x
b11111111111111111111111111111111 |
b100 y
1/
bx00000000000000000000000000110111xxxxxxxxxxxxxxxxxxxxxxxxxxxxxxxxxxxxxxxxxxxxxxxxxxxxxxxxxxxxxxxx 4
bx00000000000000000000000000110111xxxxxxxxxxxxxxxxxxxxxxxxxxxxxxxxxxxxxxxxxxxxxxxxxxxxxxxxxxxxxxxx E
b100 7
b100 H
0:
#17600
0/
#17700
b0x00 +
b0x00 O
b0x00 ,
b0x00 P
b100 }
b10 )
b10 ]
1%
b100 T
b100 v
1!
b110111 $
b110111 K
b10 S
b10 w
1U
b10 z
b11111111111111111111111111111111 |
b100 {
1/
#17800
0/
#17900
b11111111111111111111111111111111 |
b10 z
b0 )
b0 ]
1/
#18000
0/
#18100
b11111111111111111111111111111111 |
b10 z
1/
#18200
0/
#18300
b11111111111111111111111111111111 |
b10 z
1/
#18400
0/
#18500
b11111111111111111111111111111111 |
b10 z
1/
#18600
0/
#18700
b11111111111111111111111111111111 |
b10 z
1/
#18800
0/
#18900
b11111111111111111111111111111111 |
b10 z
1/
#19000
0/
#19100
b11111111111111111111111111111111 |
b10 z
1/
#19200
0/
#19300
b11111111111111111111111111111111 |
b10 z
1/
#19400
0/
#19500
b100 .
b100 R
b11111111111111111111111111111111 |
b10 z
b1000000000000000000000000000000010000000000000000000000000000000100000000000000000000000000000001 -
b1000000000000000000000000000000010000000000000000000000000000000100000000000000000000000000000001 Q
1/
b1 <
b1 I
1;
#19600
0/
#19700
b11111111111111111111111111111111 |
b10 z
1/
#19800
0/
#19900
b11111111111111111111111111111111 |
b10 z
1/
#20000
0/
#20100
b11111111111111111111111111111111 |
b10 z
1/
#20200
0/
#20300
b11111111111111111111111111111111 |
b10 z
1/
#20400
0/
#20500
b0 T
b0 v
b0 +
b0 O
b0 ,
b0 P
0!
bx $
bx K
b0 S
b0 w
0U
1u
b1000 t
b0 .
b0 R
b11111111111111111111111111111111 |
b0 z
b0 {
b1000 V
b1000 r
b0 -
b0 Q
0%
1/
0;
b0 <
b0 I
b1000 3
b1000 D
#20600
0/
#20700
b1 t
0u
b10001000 s
b1000 x
b100 y
b11111111111111111111111111111111 |
1/
#20800
0/
#20900
1u
b0 t
bx000 +
bx000 O
bx000 ,
bx000 P
b100 }
b1 )
b1 ]
b100 _
b1000 Z
b0 V
b0 r
b11 Y
1%
b1000 T
b1000 v
b11 S
b11 w
1U
b11 z
b11111111111111111111111111111111 |
b1000 {
1/
#21000
0/
#21100
0%
0U
b0 +
b0 O
b0 ,
b0 P
b0 S
b0 w
b0 T
b0 v
b100 y
b11111111111111111111111111111111 |
b0 z
b0 {
1/
#21200
0/
#21300
b11111111111111111111111111111111 |
b100 y
1/
#21400
0/
#21500
bx000 +
bx000 O
bx000 ,
bx000 P
1%
b100 }
1U
b11 S
b11 w
b1000 T
b1000 v
b10001 s
b1 x
1u
b0 t
b11 z
b11111111111111111111111111111111 |
b1000 {
b1 )
b1 ]
b0 V
b0 r
b100 _
1/
1:
#21600
0/
#21700
0%
b0 T
b0 v
b0 +
b0 O
b0 ,
b0 P
b0 S
b0 w
0U
b10 t
b11111111111111111111111111111111 |
b0 z
b0 {
b0 )
b0 ]
b1000 V
b1000 r
b1 _
1/
#21800
0/
#21900
b11111111111111111111111111111111 |
1/
#22000
0/
#22100
b11111111111111111111111111111111 |
1/
#22200
0/
#22300
b11111111111111111111111111111111 |
1/
#22400
0/
#22500
b11111111111111111111111111111111 |
1/
#22600
0/
#22700
b11111111111111111111111111111111 |
1/
#22800
0/
#22900
b11111111111111111111111111111111 |
1/
#23000
0/
#23100
b11111111111111111111111111111111 |
1/
#23200
0/
#23300
b11111111111111111111111111111111 |
1/
#23400
0/
#23500
b11111111111111111111111111111111 |
1/
#23600
0/
#23700
b11111111111111111111111111111111 |
1/
#23800
0/
#23900
b11111111111111111111111111111111 |
1/
#24000
0/
#24100
b11111111111111111111111111111111 |
1/
#24200
0/
#24300
b11111111111111111111111111111111 |
1/
#24400
0/
#24500
b11111111111111111111111111111111 |
1/
#24600
0/
#24700
b11111111111111111111111111111111 |
1/
#24800
0/
#24900
b11111111111111111111111111111111 |
1/
#25000
0/
#25100
b11111111111111111111111111111111 |
1/
#25200
0/
#25300
b11111111111111111111111111111111 |
1/
#25400
0/
#25500
b11111111111111111111111111111111 |
1/
#25600
0/
#25700
b11111111111111111111111111111111 |
1/
#25800
0/
#25900
b11111111111111111111111111111111 |
1/
#26000
0/
#26100
b11111111111111111111111111111111 |
1/
#26200
0/
#26300
b11111111111111111111111111111111 |
1/
#26400
0/
#26500
b11111111111111111111111111111111 |
1/
#26600
0/
#26700
b11111111111111111111111111111111 |
1/
#26800
0/
#26900
b11111111111111111111111111111111 |
1/
#27000
0/
#27100
b11111111111111111111111111111111 |
1/
#27200
0/
#27300
b11111111111111111111111111111111 |
1/
#27400
0/
#27500
b11111111111111111111111111111111 |
1/
#27600
0/
#27700
b11111111111111111111111111111111 |
1/
#27800
0/
#27900
b11111111111111111111111111111111 |
1/
#28000
0/
#28100
b11111111111111111111111111111111 |
1/
#28200
0/
#28300
b11111111111111111111111111111111 |
1/
#28400
0/
#28500
b11111111111111111111111111111111 |
1/
#28600
0/
#28700
b11111111111111111111111111111111 |
1/
#28800
0/
#28900
b11111111111111111111111111111111 |
1/
#29000
0/
#29100
b11111111111111111111111111111111 |
1/
#29200
0/
#29300
b11111111111111111111111111111111 |
1/
#29400
0/
#29500
b11111111111111111111111111111111 |
1/
#29600
0/
#29700
b11111111111111111111111111111111 |
1/
#29800
0/
#29900
b11111111111111111111111111111111 |
1/
#30000
0/
#30100
b11111111111111111111111111111111 |
1/
#30200
0/
#30300
b11111111111111111111111111111111 |
1/
#30400
0/
#30500
b11111111111111111111111111111111 |
1/
#30600
0/
#30700
b11111111111111111111111111111111 |
1/
#30800
0/
#30900
b11111111111111111111111111111111 |
1/
#31000
0/
#31100
b11111111111111111111111111111111 |
1/
#31200
0/
#31300
b11111111111111111111111111111111 |
1/
#31400
0/
#31500
b11111111111111111111111111111111 |
1/
